---
http_interactions:
- request:
    method: post
    uri: https://accounts.spotify.com/api/token
    body:
      encoding: ASCII-8BIT
      string: grant_type=client_credentials&client_id=<REDACTED>&client_secret=BAD_CLIENT_SECRET_ID
    headers:
      Content-Type:
      - application/x-www-form-urlencoded
      Connection:
      - close
      Host:
      - accounts.spotify.com
      User-Agent:
      - http.rb/5.2.0
  response:
    status:
      code: 400
      message: Bad Request
    headers:
      Date:
      - Sat, 19 Oct 2024 15:59:55 GMT
      Content-Type:
      - application/json
      Content-Length:
      - '70'
      X-Request-Id:
      - cc1e0e73-0601-493c-a101-42b11efdfc32
      Sp-Trace-Id:
      - ec775d7af2e40734
      X-Envoy-Upstream-Service-Time:
      - '7'
      Server:
      - envoy
      Strict-Transport-Security:
      - max-age=31536000
      X-Content-Type-Options:
      - nosniff
      Vary:
      - Accept-Encoding
      Via:
      - HTTP/2 edgeproxy, 1.1 google
      Alt-Svc:
      - h3=":443"; ma=2592000,h3-29=":443"; ma=2592000
      Connection:
      - close
    body:
      encoding: UTF-8
      string: '{"error":"invalid_client","error_description":"Invalid client secret"}'
  recorded_at: Sat, 19 Oct 2024 15:59:55 GMT
- request:
    method: post
    uri: https://accounts.spotify.com/api/token
    body:
      encoding: ASCII-8BIT
      string: grant_type=client_credentials&client_id=<REDACTED>&client_secret=<REDACTED>
    headers:
      Content-Type:
      - application/x-www-form-urlencoded
      Connection:
      - close
      Host:
      - accounts.spotify.com
      User-Agent:
      - http.rb/5.2.0
  response:
    status:
      code: 200
      message: OK
    headers:
      Date:
      - Sat, 19 Oct 2024 15:59:55 GMT
      Content-Type:
      - application/json
      Content-Length:
      - '174'
      X-Request-Id:
      - 35753630-54f1-4bba-8cdc-2affdd3e1762
      Sp-Trace-Id:
      - cef468cba0e5092f
      X-Envoy-Upstream-Service-Time:
      - '11'
      Server:
      - envoy
      Strict-Transport-Security:
      - max-age=31536000
      X-Content-Type-Options:
      - nosniff
      Vary:
      - Accept-Encoding
      Via:
      - HTTP/2 edgeproxy, 1.1 google
      Alt-Svc:
      - h3=":443"; ma=2592000,h3-29=":443"; ma=2592000
      Connection:
      - close
    body:
      encoding: UTF-8
      string: '{"access_token":"<REDACTED>","token_type":"Bearer","expires_in":3600}'
  recorded_at: Sat, 19 Oct 2024 15:59:55 GMT
- request:
    method: get
    uri: https://api.spotify.com/v1/search?limit=1&market=TW&q=%E5%B1%B1%E6%B5%B7&type=track
    body:
      encoding: ASCII-8BIT
      string: ''
    headers:
      Connection:
      - close
      Host:
      - api.spotify.com
      User-Agent:
      - http.rb/5.2.0
  response:
    status:
      code: 200
      message: OK
    headers:
      Content-Type:
      - application/json; charset=utf-8
      Cache-Control:
      - public, max-age=7200
      X-Robots-Tag:
      - noindex, nofollow
      Access-Control-Allow-Origin:
      - "*"
      Access-Control-Allow-Headers:
      - Accept, App-Platform, Authorization, Content-Type, Origin, Retry-After, Spotify-App-Version,
        X-Cloud-Trace-Context, client-token, content-access-token
      Access-Control-Allow-Methods:
      - GET, POST, OPTIONS, PUT, DELETE, PATCH
      Access-Control-Allow-Credentials:
      - 'true'
      Access-Control-Max-Age:
      - '604800'
      Content-Length:
      - '2887'
      Strict-Transport-Security:
      - max-age=31536000
      X-Content-Type-Options:
      - nosniff
      Vary:
      - Accept-Encoding
      Date:
      - Sat, 19 Oct 2024 15:59:55 GMT
      Server:
      - envoy
      Via:
      - HTTP/2 edgeproxy, 1.1 google
      Alt-Svc:
      - h3=":443"; ma=2592000,h3-29=":443"; ma=2592000
      Connection:
      - close
    body:
      encoding: UTF-8
      string: |-
        {
          "tracks" : {
            "href" : "https://api.spotify.com/v1/search?query=%E5%B1%B1%E6%B5%B7&type=track&market=TW&offset=0&limit=1",
            "items" : [ {
              "album" : {
                "album_type" : "album",
                "artists" : [ {
                  "external_urls" : {
                    "spotify" : "https://open.spotify.com/artist/3HXSUfI76zVZk71UMAeVfp"
                  },
                  "href" : "https://api.spotify.com/v1/artists/3HXSUfI76zVZk71UMAeVfp",
                  "id" : "3HXSUfI76zVZk71UMAeVfp",
                  "name" : "No Party For Cao Dong",
                  "type" : "artist",
                  "uri" : "spotify:artist:3HXSUfI76zVZk71UMAeVfp"
                } ],
                "external_urls" : {
                  "spotify" : "https://open.spotify.com/album/2Qfn3LNC6qhxgpyPjBQFJh"
                },
                "href" : "https://api.spotify.com/v1/albums/2Qfn3LNC6qhxgpyPjBQFJh",
                "id" : "2Qfn3LNC6qhxgpyPjBQFJh",
                "images" : [ {
                  "height" : 640,
                  "url" : "https://i.scdn.co/image/ab67616d0000b2736bd87ad997c2b9e44f947348",
                  "width" : 640
                }, {
                  "height" : 300,
                  "url" : "https://i.scdn.co/image/ab67616d00001e026bd87ad997c2b9e44f947348",
                  "width" : 300
                }, {
                  "height" : 64,
                  "url" : "https://i.scdn.co/image/ab67616d000048516bd87ad997c2b9e44f947348",
                  "width" : 64
                } ],
                "is_playable" : true,
                "name" : "醜奴兒",
                "release_date" : "2016-02-19",
                "release_date_precision" : "day",
                "total_tracks" : 12,
                "type" : "album",
                "uri" : "spotify:album:2Qfn3LNC6qhxgpyPjBQFJh"
              },
              "artists" : [ {
                "external_urls" : {
                  "spotify" : "https://open.spotify.com/artist/3HXSUfI76zVZk71UMAeVfp"
                },
                "href" : "https://api.spotify.com/v1/artists/3HXSUfI76zVZk71UMAeVfp",
                "id" : "3HXSUfI76zVZk71UMAeVfp",
                "name" : "No Party For Cao Dong",
                "type" : "artist",
                "uri" : "spotify:artist:3HXSUfI76zVZk71UMAeVfp"
              } ],
              "disc_number" : 1,
              "duration_ms" : 251053,
              "explicit" : false,
              "external_ids" : {
                "isrc" : "TWBN31600010"
              },
              "external_urls" : {
                "spotify" : "https://open.spotify.com/track/0VUORVhLmsxKTSwg4P9CrB"
              },
              "href" : "https://api.spotify.com/v1/tracks/0VUORVhLmsxKTSwg4P9CrB",
              "id" : "0VUORVhLmsxKTSwg4P9CrB",
              "is_local" : false,
              "is_playable" : true,
              "name" : "山海",
              "popularity" : 53,
              "preview_url" : "https://p.scdn.co/mp3-preview/40d17f6882a01ffe6ba7b8c47045680fd7d7aaa5?cid=<REDACTED>",
              "track_number" : 10,
              "type" : "track",
              "uri" : "spotify:track:0VUORVhLmsxKTSwg4P9CrB"
            } ],
            "limit" : 1,
            "next" : "https://api.spotify.com/v1/search?query=%E5%B1%B1%E6%B5%B7&type=track&market=TW&offset=1&limit=1",
            "offset" : 0,
            "previous" : null,
            "total" : 100
          }
        }
  recorded_at: Sat, 19 Oct 2024 15:59:55 GMT
recorded_with: VCR 6.3.1
